<?xml version="1.0" standalone="no"?>
<!DOCTYPE svg PUBLIC "-//W3C//DTD SVG 20010904//EN"
 "http://www.w3.org/TR/2001/REC-SVG-20010904/DTD/svg10.dtd">
<svg version="1.0" xmlns="http://www.w3.org/2000/svg"
 width="576.000000pt" height="576.000000pt" viewBox="0 0 576.000000 576.000000"
 preserveAspectRatio="xMidYMid meet">
<metadata>
Created by potrace 1.11, written by Peter Selinger 2001-2013
</metadata>
<g transform="translate(0.000000,576.000000) scale(0.100000,-0.100000)"
fill="#000000" stroke="none">
<path d="M1768 5115 c-2 -1 -32 -5 -68 -9 -36 -3 -76 -8 -90 -11 -13 -2 -40
-7 -60 -10 -45 -7 -209 -52 -255 -70 -128 -51 -199 -81 -244 -106 -30 -16 -61
-29 -68 -29 -7 0 -13 -4 -13 -8 0 -5 -12 -14 -27 -21 -32 -15 -208 -130 -240
-157 -11 -11 -41 -35 -64 -54 -71 -57 -230 -222 -264 -273 -5 -8 -31 -43 -56
-78 -97 -134 -153 -252 -239 -499 -8 -22 -22 -79 -26 -105 -1 -5 -3 -12 -4
-15 -3 -9 -8 -34 -15 -74 -4 -21 -8 -48 -10 -59 -23 -118 -27 -627 -5 -627 3
0 7 -15 8 -32 2 -26 26 -123 66 -273 3 -12 5 -17 59 -150 22 -55 45 -107 52
-115 6 -8 20 -34 31 -57 10 -24 22 -43 27 -43 4 0 7 -5 7 -12 0 -7 18 -38 40
-69 22 -32 40 -62 40 -67 0 -6 4 -12 8 -14 4 -1 23 -23 42 -48 85 -108 208
-234 314 -319 39 -31 73 -58 76 -61 3 -3 42 -29 87 -58 86 -56 84 -53 84 -137
0 -8 0 -31 0 -50 0 -19 0 -41 0 -47 1 -23 0 -172 -1 -198 -5 -110 -4 -220 1
-220 4 0 3 -18 -1 -39 -4 -22 -4 -45 1 -52 4 -7 5 -17 2 -22 -13 -22 10 -99
40 -132 37 -41 73 -53 145 -51 29 0 52 -3 52 -7 0 -5 4 -6 9 -3 5 3 31 6 57 7
62 2 87 12 122 46 33 32 51 75 52 118 0 17 0 39 1 50 0 16 0 128 0 180 0 6 0
39 -1 75 -1 36 -1 70 0 75 1 6 2 14 1 19 -4 19 -2 128 2 132 3 3 43 -3 112
-19 18 -4 86 -15 140 -23 22 -3 214 -16 230 -15 6 0 43 3 83 6 l74 6 -2 -38
c-1 -21 -1 -40 -1 -43 5 -15 5 -160 1 -160 -5 0 -2 -188 4 -250 2 -19 4 -43 5
-53 0 -10 18 -36 40 -57 43 -43 84 -53 201 -49 19 1 42 1 50 0 37 -3 47 -1 82
13 45 19 87 72 93 117 3 19 5 67 5 107 -1 39 -1 80 -1 90 2 78 1 115 -4 122
-3 5 -1 11 4 14 4 3 5 23 1 43 -3 21 -3 50 1 64 3 15 3 32 -1 39 -4 6 -4 29 0
51 4 22 4 41 0 44 -4 2 -5 15 -3 28 4 18 17 28 56 42 115 41 271 122 422 219
28 18 57 36 65 40 8 3 47 25 85 47 91 52 245 125 355 169 128 51 350 120 440
136 14 2 48 9 75 14 28 5 70 12 95 15 25 3 56 8 70 10 53 9 360 21 385 15 6
-1 12 -1 15 0 3 1 26 3 51 4 l47 2 45 -85 c25 -48 56 -106 69 -131 13 -25 25
-47 28 -50 6 -6 18 -27 71 -127 23 -43 54 -100 69 -128 26 -48 47 -86 120
-220 18 -33 41 -73 50 -90 18 -30 100 -183 128 -240 9 -16 18 -32 21 -35 3 -3
16 -25 29 -50 124 -238 151 -273 219 -285 24 -4 56 -4 72 0 37 8 94 60 110
101 9 24 11 318 8 1320 -2 709 -7 1304 -11 1322 -24 110 -86 281 -113 313 -7
8 -13 19 -13 23 0 3 -21 38 -46 77 -54 81 -194 225 -280 286 -80 58 -232 135
-329 167 -157 53 -221 61 -565 71 -91 3 -178 7 -195 9 -16 3 -52 8 -80 12 -27
3 -59 8 -70 10 -11 3 -36 7 -55 10 -102 16 -393 101 -475 138 -16 8 -50 22
-75 32 -105 42 -375 191 -426 236 -11 10 -25 18 -30 18 -6 0 -19 8 -30 18 -24
20 -50 36 -122 73 -30 16 -59 32 -65 37 -7 5 -48 23 -92 41 -44 18 -89 37
-100 42 -11 4 -42 15 -70 24 -47 16 -59 19 -103 29 -9 2 -36 9 -60 16 -24 6
-55 13 -70 15 -15 2 -38 6 -52 9 -65 14 -118 18 -282 21 -97 2 -178 2 -180 0z
m2957 -1693 c159 -60 203 -280 78 -393 -52 -47 -85 -62 -146 -65 -138 -6 -247
88 -253 219 -3 68 8 107 45 159 22 31 91 82 113 83 3 0 9 3 13 6 12 12 110 6
150 -9z m712 -1024 c4 -75 4 -102 3 -160 -1 -38 2 -72 5 -78 3 -5 1 -10 -5
-10 -6 0 -9 -4 -6 -9 6 -8 6 -31 7 -236 0 -66 0 -124 0 -130 0 -5 -1 -34 -3
-63 -2 -28 0 -52 4 -52 4 0 5 -6 3 -12 -7 -19 -11 -128 -5 -128 3 0 4 -18 2
-40 -2 -22 -8 -37 -13 -34 -5 3 -7 9 -4 14 3 4 1 10 -3 12 -8 3 -38 55 -123
213 -23 44 -56 103 -71 130 -16 28 -36 66 -46 85 -9 19 -20 37 -24 38 -5 2 -8
12 -8 22 0 10 -4 20 -8 22 -12 4 -92 157 -92 174 0 8 6 14 14 14 18 0 182 84
196 101 3 3 25 19 50 37 25 17 63 47 85 67 46 41 42 38 42 23z"/>
</g>
</svg>
